2b_Low-Latency-FIFO/traces.vcd
$date
     Jun 03, 2021       02:43:13
$end

$version
 SystemC 2.3.3-Accellera --- Jun  2 2021 22:11:23
$end

$timescale
     1 ps
$end

$scope module SystemC $end
$var wire    1  aaaaa  clock       $end
$var wire    8  aaaab  d_in [7:0]  $end
$var wire    8  aaaac  d_out [7:0]  $end
$var wire    1  aaaad  wr_en       $end
$var wire    1  aaaae  rd_en       $end
$var wire    1  aaaaf  full       $end
$var wire    1  aaaag  valid       $end
$upscope $end
$enddefinitions  $end

$comment
All initial values are dumped below at time 0 sec = 0 timescale units.
$end

$dumpvars
1aaaaa
b11111111 aaaab
b0 aaaac
0aaaad
0aaaae
0aaaaf
0aaaag
$end

#50000
0aaaaa

#100000
1aaaaa

#150000
0aaaaa

#200000
1aaaaa

#250000
0aaaaa

#300000
1aaaaa
b0 aaaab
1aaaad

#350000
0aaaaa

#400000
1aaaaa
0aaaad
1aaaag

#450000
0aaaaa

#500000
1aaaaa
1aaaae

#550000
0aaaaa

#600000
1aaaaa
b1 aaaab
1aaaad
0aaaae
0aaaag

#650000
0aaaaa

#700000
1aaaaa
b1 aaaac
0aaaad
1aaaag

#750000
0aaaaa

#800000
1aaaaa
b10 aaaab
1aaaad

#850000
0aaaaa

#900000
1aaaaa
0aaaad

#950000
0aaaaa

#1000000
1aaaaa

#1050000
0aaaaa

#1100000
1aaaaa
b11 aaaab
1aaaad
1aaaae

#1150000
0aaaaa

#1200000
1aaaaa
b10 aaaac
0aaaad
0aaaae

#1250000
0aaaaa

#1300000
1aaaaa

#1350000
0aaaaa

#1400000
1aaaaa
b100 aaaab
1aaaad

#1450000
0aaaaa

#1500000
1aaaaa
b101 aaaab

#1550000
0aaaaa

#1600000
1aaaaa
b110 aaaab
1aaaae

#1650000
0aaaaa

#1700000
1aaaaa
b111 aaaab
b11 aaaac
0aaaae

#1750000
0aaaaa

#1800000
1aaaaa
b1000 aaaab

#1850000
0aaaaa

#1900000
1aaaaa
b1001 aaaab

#1950000
0aaaaa

#2000000
1aaaaa
b1010 aaaab
1aaaae
1aaaaf

#2050000
0aaaaa

#2100000
1aaaaa
b100 aaaac

#2150000
0aaaaa

#2200000
1aaaaa
b101 aaaac
0aaaae

#2250000
0aaaaa

#2300000
1aaaaa
1aaaae

#2350000
0aaaaa

#2400000
1aaaaa
b110 aaaac
0aaaad

#2450000
0aaaaa

#2500000
1aaaaa
b111 aaaac
1aaaad

#2550000
0aaaaa

#2600000
1aaaaa
b1000 aaaac
0aaaad

#2650000
0aaaaa

#2700000
1aaaaa
0aaaag

#2750000
0aaaaa

#2800000
1aaaaa

#2850000
0aaaaa

#2900000
1aaaaa

#2950000
0aaaaa

#3000000
1aaaaa

#3050000
0aaaaa

#3100000
1aaaaa

#3150000
0aaaaa

#3200000
1aaaaa

#3250000
0aaaaa

#3300000
1aaaaa
0aaaae

#3350000
0aaaaa

#3400000
1aaaaa

#3450000
0aaaaa

#3500000
1aaaaa
1aaaae

#3550000
0aaaaa

#3600000
1aaaaa
0aaaae

#3650000
0aaaaa

#3700000
1aaaaa

#3750000
0aaaaa

#3800000
1aaaaa

#3850000
0aaaaa

#3900000
1aaaaa

#3950000
0aaaaa

#4000000
1aaaaa
1aaaae

#4050000
0aaaaa

#4100000
1aaaaa
0aaaae

#4150000
0aaaaa

#4200000
1aaaaa

#4250000
0aaaaa

#4300000
1aaaaa

#4350000
0aaaaa

#4400000
1aaaaa

#4450000
0aaaaa

#4500000
1aaaaa

#4550000
0aaaaa

#4600000
1aaaaa
1aaaad
1aaaae

#4650000
0aaaaa

#4700000
1aaaaa
0aaaad
0aaaae

#4750000
0aaaaa

#4800000
1aaaaa

#4850000
0aaaaa

#4900000
1aaaaa
1aaaad

